<?xml version="1.0" encoding="UTF-8"?>
<svg width="250.84" height="59.591" color-interpolation-filters="sRGB" data-v-0dd9719b="" preserveAspectRatio="xMidYMid" version="1.0" viewBox="0 0 250.84 59.591" xmlns="http://www.w3.org/2000/svg">
 <g fill="#333">
  <rect class="image-rect" width="60" height="59.591" fill="#333" fill-opacity="0" stroke-width="2"/>
  <svg class="image-svg-svg primary" width="60" height="59.591" overflow="visible" filtersec="colorsb3477888305" version="1.1">
   <svg version="1.1" viewBox="0.0007019341 -0.0011312107 159.4381 158.35114"/>
  </svg>
 </g>
 <path d="m89.93 21.311h-12.62v6.11h9.39l1.07 4.31h-10.46v10.43h-4.31v-25.16h16.93zm5.93 20.85h-4.31v-17.97h4.31zm-4.31-20.85v-4.31h4.31v4.31zm19.45 15.49 3.05 3.06q-1.29 1.29-3.02 2.03-1.72 0.74-3.7 0.74t-3.7-0.74q-1.73-0.74-3.02-2.03-1.3-1.29-2.03-3.02-0.74-1.73-0.74-3.67 0-1.97 0.74-3.7 0.73-1.73 2.03-3.02 1.29-1.29 3.02-2.03 1.72-0.74 3.7-0.74t3.7 0.74q1.73 0.74 3.02 2.03l-3.05 3.06q-1.51-1.51-3.67-1.51-2.08 0-3.67 1.51-1.51 1.51-1.51 3.66 0 2.12 1.51 3.63 0.76 0.76 1.69 1.14 0.94 0.37 1.98 0.37 2.19 0 3.67-1.51zm12.72 1.05 1.08 4.31h-3.95q-1.23 0-2.3-0.47-1.08-0.46-1.87-1.27t-1.26-1.89-0.47-2.3v-15.68l4.32-1.07v6.86h2.51l1.08 4.32h-3.59v5.57q0 0.68 0.46 1.15 0.47 0.47 1.12 0.47zm6.83 4.31h-4.31v-17.97h4.31zm-4.31-20.85v-4.31h4.31v4.31zm25.02 14.02h-13.95q0.36 0.83 1.04 1.47 0.76 0.76 1.69 1.14 0.94 0.37 1.98 0.37 1.48 0 2.63-0.68l4.49 1.8q-1.29 1.51-3.13 2.35-1.83 0.85-3.99 0.85-1.98 0-3.7-0.74-1.73-0.74-3.02-2.03-1.3-1.29-2.03-3.02-0.74-1.73-0.74-3.67 0-1.97 0.74-3.7 0.73-1.73 2.03-3.02 1.29-1.29 3.02-2.03 1.72-0.74 3.7-0.74t3.7 0.74q1.73 0.74 3.02 2.03 1.3 1.29 2.04 3.02 0.73 1.73 0.73 3.7 0 1.15-0.25 2.16zm-9.24-7.33q-2.08 0-3.67 1.51-0.68 0.68-1.04 1.51h9.42q-0.36-0.83-1.04-1.51-1.51-1.51-3.67-1.51zm25.13-3.81h4.75l-8.34 17.97h-4.75l-8.34-17.97h4.75l5.96 12.87zm22.47 11.14h-13.95q0.36 0.83 1.04 1.47 0.76 0.76 1.69 1.14 0.94 0.37 1.98 0.37 1.47 0 2.62-0.68l4.5 1.8q-1.3 1.51-3.13 2.35-1.83 0.85-3.99 0.85-1.98 0-3.7-0.74-1.73-0.74-3.02-2.03-1.3-1.29-2.03-3.02-0.74-1.73-0.74-3.67 0-1.97 0.74-3.7 0.73-1.73 2.03-3.02 1.29-1.29 3.02-2.03 1.72-0.74 3.7-0.74t3.7 0.74q1.73 0.74 3.02 2.03 1.3 1.29 2.03 3.02 0.74 1.73 0.74 3.7 0 1.15-0.25 2.16zm-9.24-7.33q-2.09 0-3.67 1.51-0.68 0.68-1.04 1.51h9.42q-0.36-0.83-1.04-1.51-1.51-1.51-3.67-1.51zm23.15-10.97v25.13h-4.31v-25.13zm17.47-0.07h4.32v25.16h-4.68l-10.1-17.22v17.22h-4.31v-25.16h4.67l10.1 17.22zm17.26 0.04q2.59 0 4.89 0.98 2.3 0.99 4.01 2.7 1.7 1.71 2.69 4.01t0.99 4.89-0.99 4.89-2.69 4.01q-1.71 1.7-4.01 2.69t-4.89 0.99h-4.46l1.76-4.31h2.7q1.65 0 3.16-0.63t2.7-1.78q1.15-1.19 1.78-2.68t0.63-3.18q0-1.66-0.63-3.17t-1.78-2.69q-1.19-1.15-2.7-1.78t-3.16-0.63h-6.11v20.85h-4.32v-25.16z" fill="#100c72"/>
 <g transform="matrix(.37632 0 0 .37632 -.000264 .000549)">
  <path d="m112.49 122.52c-12.61 0.29-24.5-3.49-36-8.84-7.27-3.38-14.3-7.28-21.76-10.25-6-2.36-12.08-4.05-18.6-3.85a23.28 23.28 0 0 0-22.83 20.58c-0.08 0.59 0.14 1.38-0.72 1.54s-1.05-0.57-1.37-1.1a76.1 76.1 0 0 1-10.85-29.85c-0.92-6.86-0.17-13.36 3.38-19.4a22.91 22.91 0 0 1 16.16-11.16c12.84-2.46 23.88 1.92 34.1 9.16 6.21 4.39 11.79 9.54 17.57 14.45 8 6.8 16.2 13.4 26.23 17.08 14.22 5.23 28.24 5.36 41.55-2.71 9.57-5.8 15-14.71 17.79-25.41a7.77 7.77 0 0 1 0.34-1.28c0.26-0.55-0.11-1.67 0.95-1.52 0.74 0.1 0.55 1 0.61 1.62a54.71 54.71 0 0 1-3.32 26.42c-4.67 11.66-13.37 18.88-25.32 22.34a60.69 60.69 0 0 1-17.91 2.18z" fill="#8ec640"/>
  <path d="m74.94 158.35a75.57 75.57 0 0 1-38-12c-5.29-3.45-9.63-7.83-11.87-13.88-1.88-5-2.05-10.21 0.42-15.09 2.64-5.21 8.14-7.39 14.7-6.91 6.29 0.46 11.91 3.18 17.51 5.82 9.19 4.34 18.26 8.92 28 12 12.2 3.71 24.6 5.32 37.3 3.31 7.09-1.13 13.87-3.29 19.87-7.45 0.41-0.29 0.95-1 1.46-0.29s-0.21 1.29-0.59 1.81a79.36 79.36 0 0 1-34.77 26.89c-9.91 3.98-19.44 5.79-34.03 5.79z" fill="#227946"/>
  <path d="m150.14 63.77c0 14-10 26.76-25.71 30.46-8.49 2-17 1.34-25.33-0.78-0.53-0.13-1.43-0.07-1.48-0.92s0.87-0.75 1.4-0.9c9.45-2.84 15.93-8.76 19-18.22a26.8 26.8 0 0 0-15.79-32.76c-8.7-3.27-17-2.27-24.82 2.71-0.49 0.31-1 1.09-1.62 0.51s-0.08-1.3 0.23-1.86a29.06 29.06 0 0 1 17.24-14.01c17.28-5.6 33-2.43 46.59 9.7 6.94 6.21 10.43 14.3 10.29 26.07z" fill="#f34242"/>
  <path d="m86.46 0c14.11-0.08 25.15 4.09 35.54 10.36a61.88 61.88 0 0 1 13.16 10.47c0.48 0.51 1.7 1 1 1.93-0.58 0.71-1.37-0.12-2-0.45a55.23 55.23 0 0 0-33-6.27c-10.79 1.23-20.16 5.36-27.3 13.7a40.86 40.86 0 0 0-8.61 17.26 51.72 51.72 0 0 0-1.25 17.53c0.07 0.67 0.49 1.64-0.41 2s-1.4-0.34-2-0.83c-6.59-5.58-11.59-12.28-13.67-20.82a35 35 0 0 1 1.08-20.35c4.62-13 14.25-20.23 27.4-23.31a42.74 42.74 0 0 1 10.06-1.22z" fill="#47b3e3"/>
  <path d="m109.05 65.51a16.55 16.55 0 0 1-16.63 16.81 16.74 16.74 0 0 1-0.15-33.47 16.58 16.58 0 0 1 16.78 16.66z" fill="#fdde19"/>
  <path d="m2.49 55.62a24.34 24.34 0 0 1 4-9.28 30 30 0 0 1 16-11.46c1.12-0.34 1.76-0.76 1.8-2 0.37-13.19 7.8-21.08 19.44-25.78a38.82 38.82 0 0 1 3.78-1.24c0.56-0.17 1.28-0.6 1.68 0.18 0.32 0.62-0.28 1-0.66 1.44a40.89 40.89 0 0 0-5.93 8.08 41.3 41.3 0 0 0-4.85 22.12 52.06 52.06 0 0 0 1.89 11.57c0.17 0.62 0.68 1.39 0 1.94s-1.19 0-1.79-0.19c-10.19-3.32-20.12-3.37-29.58 2.4a42.08 42.08 0 0 0-4.5 3.47c-0.33 0.27-0.63 0.72-1.13 0.39s-0.35-0.76-0.15-1.64z" fill="#47b3e3"/>
 </g>
</svg>
